list1: List{values=[17 List{values=[19 null]}]}
  class: Class{name="List" serialVersionUID=7622494193198739048 classDescFlags=2 fields=[FieldDesc{name="value" type="I"} FieldDesc{name="next" type="LList;"}] superClass=null}
list2: List{values=[19 null]}
  class: Class{name="List" serialVersionUID=7622494193198739048 classDescFlags=2 fields=[FieldDesc{name="value" type="I"} FieldDesc{name="next" type="LList;"}] superClass=null}
